54 angstroem
free
N -26.726999000000003 -1.077 22.934999
N -29.408001 -4.523 22.938999
C -26.437 -2.1629999999999994 22.862
C -28.297001 -4.665 22.927
C -24.650999 -3.623 22.337
C -25.992001 -3.525 22.711
C -26.829 -4.695 22.757
C -26.233 -5.933 22.478001
C -24.857 -6.032 22.157
C -24.1 -4.879 22.086
H -24.045 -2.734 22.243
H -26.844 -6.823 22.511999
N -22.676001 -4.879 21.944
C -21.921 -4.27 20.926001
C -22.49 -3.8539999999999996 19.704
C -21.638 -3.261 18.747999
C -20.256001 -3.308 19.002001000000003
C -19.639999 -3.833 20.160999
C -20.552 -4.267 21.153
H -23.542999 -3.987 19.506001
H -22.028999 -2.789 17.858999
H -19.608 -2.9050000000000002 18.238001000000004
H -18.568001 -3.897 20.277
C -21.665001 -5.252 22.834999
C -21.878 -5.692 24.139
C -20.802999 -5.885 25.040001
C -19.493 -5.745 24.545
C -19.278999 -5.212 23.233
C -20.362 -4.937 22.395
H -22.892 -5.886 24.455999
H -20.976999 -6.132 26.077
H -18.66 -6.043 25.166
H -18.282 -5.014000000000001 22.868
N -24.297001 -7.304 22.025999
C -23.705999 -7.883 20.924999
C -23.440001 -7.232 19.700001
C -22.843 -7.991 18.607
C -22.573999 -9.351 18.771999
C -22.878 -10.013 19.951
C -23.475 -9.277 21.037001
H -23.684999 -6.185 19.601
H -22.594999 -7.538 17.659
H -22.118999 -9.905 17.964001
H -22.657 -11.068 20.023001
C -24.408001 -8.394 22.865
C -24.601 -8.422 24.291
C -24.448999 -9.659 24.971001
C -24.309 -10.874 24.318001
C -24.051001 -10.838 22.931
C -24.02 -9.616 22.297001
H -24.855 -7.529 24.843
H -24.438999 -9.677 26.051001
H -24.396999 -11.803 24.862
H -23.878 -11.739 22.360001
