54 angstroem
free
N -4.469 -15.813 22.341
N -7.586 -16.662001 19.58
C -4.94 -16.844999 22.184999
C -7.145 -17.474001 20.268998999999997
C -5.011 -19.191999 22.820000000000004
C -5.511 -18.155001 21.986
C -6.561 -18.448999 21.122999
C -7.0 -19.754 20.913
C -6.571 -20.771 21.752001
C -5.55 -20.500999 22.714001
H -4.226 -18.986000000000004 23.532
H -7.673000000000001 -19.976999 20.099001
N -5.007 -21.388 23.627001
C -4.178 -22.479 23.386999
C -3.577 -22.832001 22.211
C -2.614 -23.915001 22.162001
C -2.314 -24.65 23.358
C -2.945 -24.283001 24.547001
C -3.87 -23.202999 24.530001000000002
H -3.859 -22.264999 21.336
H -2.121 -24.174999 21.237
H -1.617 -25.475 23.363001
H -2.722 -24.820000000000004 25.457001
C -5.204999999999999 -21.427998999999996 24.997999
C -5.868 -20.545 25.785999
C -6.003 -20.712999 27.184
C -5.368 -21.771998999999997 27.778999
C -4.576 -22.747999 26.965
C -4.521 -22.507 25.569
H -6.298 -19.688 25.288
H -6.586999999999999 -20.038 27.792
H -5.486 -21.836 28.851
H -4.058 -23.603001 27.374001
N -7.265 -22.003 21.739
C -7.377 -22.856001 20.679001
C -6.786 -22.653 19.472
C -7.121999999999999 -23.558001 18.455
C -8.039 -24.58 18.646
C -8.584 -24.855 19.891001
C -8.148 -23.996 20.941999
H -6.099 -21.830999 19.33
H -6.655 -23.465 17.486
H -8.338 -25.181 17.799
H -9.286 -25.664 20.031
C -7.971 -22.605 22.719999
C -8.28 -22.072001000000004 24.007999
C -9.041 -22.787001 24.931999
C -9.531 -23.999001 24.459999000000003
C -9.347 -24.48 23.191
C -8.572 -23.747999 22.325001
H -7.926 -21.091999 24.292999
H -9.235 -22.431 25.933001
H -10.101 -24.618999 25.136
H -9.801 -25.41 22.882
