54 angstroem
free
N -2.491 -10.716 -10.473
N 1.274 -9.733 -8.72
C -1.502 -11.197 -10.669
C 1.162 -10.565 -9.48
C -0.461 -13.021 -11.711
C -0.285 -11.858 -11.001
C 0.948 -11.552 -10.44
C 2.066 -12.35 -10.703000000000001
C 1.878 -13.522 -11.437
C 0.613 -13.918 -11.927
H -1.446 -13.23 -12.1
H 3.047 -12.07 -10.349
N 0.246 -15.023 -12.773000000000001
C -0.853 -15.96 -12.682
C -1.718 -16.240999 -11.58
C -2.713 -17.190001 -11.657
C -2.928 -17.871 -12.858
C -1.989 -17.754 -13.92
C -1.036 -16.695999 -13.793
H -1.616 -15.712 -10.645
H -3.317 -17.396 -10.785
H -3.8109999999999995 -18.483 -12.965
H -2.0 -18.424 -14.767
C 0.76 -15.293 -13.996000000000002
C 1.822 -14.65 -14.583
C 2.254 -15.032 -15.887
C 1.515 -15.999 -16.606001
C 0.453 -16.601 -15.922
C 0.066 -16.264999 -14.66
H 2.309 -13.859 -14.031
H 3.136 -14.591 -16.327999
H 1.749 -16.264999 -17.625999
H -0.11 -17.386 -16.403999
N 2.971 -14.468 -11.482
C 2.943 -15.787 -11.125
C 2.0 -16.5 -10.42
C 2.12 -17.927 -10.314
C 3.282 -18.533001 -10.757
C 4.302 -17.767 -11.352
C 4.141 -16.400999 -11.536
H 1.1889999999999998 -15.954 -9.961
H 1.336 -18.545 -9.902
H 3.393 -19.6 -10.638
H 5.221000000000001 -18.235001 -11.672
C 4.202 -14.287 -12.062
C 4.732 -13.035 -12.522
C 5.964 -12.993 -13.065
C 6.737 -14.204 -13.074
C 6.287 -15.451 -12.656
C 5.037 -15.403 -12.069
H 4.191 -12.103 -12.458
H 6.3100000000000005 -12.052 -13.467
H 7.756 -14.173 -13.43
H 6.851 -16.364 -12.774
