54 angstroem
free
N -1.155 -28.549 3.356
N 2.287 -30.48 4.335
C -0.126 -28.188999 2.967
C 2.384 -29.580999 3.675
C 1.229 -26.657 1.5949999999999998
C 1.205 -27.784 2.451
C 2.397 -28.407 2.814
C 3.628 -27.954 2.325
C 3.629 -26.841 1.466
C 2.445 -26.107 1.201
H 0.311 -26.214001 1.239
H 4.547 -28.448999 2.601
N 2.472 -25.047001 0.317
C 2.644 -24.973 -1.062
C 2.602 -26.027 -1.96
C 2.783 -25.785999 -3.341
C 2.967 -24.451 -3.8
C 2.793 -23.384001000000005 -2.968
C 2.647 -23.698999 -1.5949999999999998
H 2.43 -27.027 -1.588
H 2.78 -26.611 -4.038
H 3.25 -24.238001 -4.821
H 2.773 -22.378 -3.361
C 2.272 -23.674999 0.632
C 1.915 -23.113001 1.857
C 1.829 -21.725000000000005 2.062
C 2.074 -20.948 0.93
C 2.28 -21.489 -0.334
C 2.415 -22.837 -0.45
H 1.697 -23.778999 2.679
H 1.593 -21.287001 3.02
H 2.104 -19.874001 1.038
H 2.3349999999999995 -20.868 -1.217
N 4.944 -26.355 1.056
C 5.934 -27.052999 0.41
C 5.747 -28.218 -0.4
C 6.893 -28.743000000000002 -0.966
C 8.126 -28.184999 -0.632
C 8.321 -27.075001 0.181
C 7.167 -26.535998999999997 0.692
H 4.786 -28.677999 -0.576
H 6.827 -29.573 -1.654
H 9.009000000000002 -28.653999 -1.04
H 9.295 -26.664 0.399
C 5.606 -25.363001 1.799
C 5.112 -24.525 2.796
C 6.05 -23.857 3.556
C 7.377 -24.021999 3.427
C 7.886 -24.863001 2.4210000000000003
C 6.965999999999999 -25.452 1.583
H 4.054 -24.399 2.971
H 5.721000000000001 -23.153999 4.3069999999999995
H 8.019 -23.490999 4.114
H 8.942 -25.049000000000003 2.298
