54 angstroem
free
N 1.835 -13.876 31.547001
N 0.991 -13.928 35.784
C 2.541 -14.273 32.362999
C 1.901 -14.383 35.254002
C 4.701 -15.268 32.867001
C 3.463 -14.806 33.354
C 3.1119999999999997 -15.022 34.700001
C 4.118 -15.501 35.548
C 5.386 -15.861 35.085999
C 5.609 -15.814 33.737
H 4.957 -15.203 31.82
H 3.906 -15.596 36.602001
N 6.868 -16.339001 33.154999
C 7.213 -17.639 32.863998
C 6.681 -18.799999 33.48
C 7.067 -20.056999 33.022999
C 8.015 -20.139 32.027
C 8.616 -19.016001 31.466999
C 8.141 -17.796 31.896999
H 5.981 -18.726999 34.299
H 6.636 -20.957001 33.436001
H 8.297 -21.118999 31.671
H 9.409 -19.087999 30.737
C 7.791 -15.656 32.394001
C 8.002 -14.345999999999998 32.416
C 8.963 -13.764 31.625
C 9.738 -14.577 30.784
C 9.542 -15.945 30.768
C 8.555 -16.443001 31.562
H 7.39 -13.752 33.078999
H 9.106 -12.695 31.664
H 10.492 -14.146 30.143
H 10.141 -16.603001 30.156
N 6.259 -16.393999 36.009998
C 5.98 -17.559999 36.701
C 4.919 -18.471001 36.460999
C 4.935 -19.694 37.153999
C 5.934 -20.025999 38.050999
C 7.04 -19.148001 38.248001
C 7.04 -17.933001 37.551998
H 4.12 -18.240999 35.771
H 4.145 -20.410999 36.988998
H 5.851 -20.958 38.59
H 7.857 -19.396 38.908001
C 7.495 -16.014 36.507999
C 8.119 -14.792 36.224998
C 9.345 -14.51 36.813999
C 9.922 -15.4 37.723
C 9.233 -16.580999 38.049
C 8.003 -16.857 37.483002
H 7.659 -14.075 35.561001
H 9.854 -13.591 36.563
H 10.882 -15.179 38.166
H 9.657 -17.288 38.745998
