54 angstroem
free
N 1.733 -1.723 33.582001
N -2.236 -3.182 33.958
C 0.87 -1.218 33.071999
C -1.926 -2.22 33.456001
C -0.054 0.667 31.855
C -0.275 -0.543 32.478001
C -1.612 -0.961 32.764
C -2.665 -0.148 32.407001
C -2.483 1.009 31.624001
C -1.139 1.4349999999999998 31.35
H 0.965 1.012 31.764
H -3.652 -0.424 32.748001
N -0.875 2.626 30.625
C -0.104 3.746 31.004999
C 0.485 4.002 32.268002
C 1.191 5.213 32.393002
C 1.311 6.133 31.320999
C 0.668 5.844999999999999 30.118
C -0.038 4.656 29.957001000000005
H 0.401 3.309 33.091999
H 1.654 5.444 33.34
H 1.885 7.042 31.419001
H 0.717 6.55 29.302
C -1.2710000000000001 2.903 29.302999
C -1.921 2.034 28.392
C -2.2920000000000003 2.528 27.152
C -1.77 3.777 26.725
C -0.939 4.618 27.548
C -0.82 4.163 28.849001
H -2.132 1.004 28.641001
H -2.969 1.956 26.535998999999997
H -2.017 4.103 25.725
H -0.444 5.518 27.216
N -3.692 1.665 31.296
C -4.071 2.862 31.851999
C -3.288 3.748 32.554001
C -3.846 4.866 33.172001
C -5.275 4.967 33.171001
C -6.074 4.136 32.439999
C -5.416 3.091 31.813
H -2.226 3.563 32.620998
H -3.209 5.611 33.625999
H -5.783 5.718 33.758999
H -7.139 4.292 32.362999
C -4.933 1.159 30.917999
C -5.235 0.022 30.174
C -6.546 -0.234 29.735001
C -7.605999999999999 0.666 29.983999
C -7.32 1.852 30.652
C -5.997 2.057 31.087000000000003
H -4.442 -0.67 29.933001
H -6.743 -1.147 29.193001
H -8.616 0.452 29.669001
H -8.094 2.5850000000000004 30.825001
