54 angstroem
free
N -1.719 -19.805 21.820999
N 1.266 -17.315001 22.475
C -1.071 -20.016001 22.733999
C 1.182 -18.148001 23.219999
C -0.548 -21.129999 24.808001
C -0.244 -20.138 23.863001
C 0.81 -19.282 24.108999
C 1.598 -19.455999 25.215
C 1.374 -20.448999 26.160999
C 0.237 -21.332001 25.965
H -1.412 -21.757 24.639
H 2.432 -18.782000000000004 25.347
N 0.02 -22.426001 26.806
C -0.807 -22.531 27.818001
C -1.449 -21.393 28.417999
C -2.191 -21.669001 29.559
C -2.475 -22.973 30.002001
C -1.814 -24.087999 29.379
C -0.959 -23.809999 28.308001
H -1.378 -20.386999 28.033001000000002
H -2.566 -20.830999 30.128
H -3.185 -23.115 30.802998999999996
H -1.957 -25.108 29.705999
C 0.365 -23.731001 26.482
C 1.036 -24.215 25.344999
C 1.179 -25.621999999999996 25.198999000000004
C 0.565 -26.431 26.128
C -0.166 -26.01 27.281
C -0.28 -24.634001 27.410999
H 1.428 -23.528999 24.608999
H 1.744 -26.07 24.395
H 0.667 -27.489 25.936001
H -0.601 -26.684999 28.003
N 2.213 -20.500999 27.287001
C 2.311 -19.542 28.295
C 1.572 -18.422001 28.402
C 1.854 -17.59 29.500999
C 2.852 -17.931999 30.392
C 3.6200000000000006 -19.066999 30.32
C 3.3 -19.877001 29.250999
H 0.812 -18.207001 27.665001
H 1.298 -16.677999 29.662001
H 3.049 -17.257 31.212
H 4.398 -19.299 31.033001
C 3.184 -21.443999999999996 27.663
C 3.571 -22.591999 26.979
C 4.671 -23.299 27.336
C 5.434 -22.912001 28.479
C 5.037 -21.795 29.235001
C 3.911 -21.075001 28.801001
H 2.995 -22.948999 26.138
H 4.934 -24.149 26.724001
H 6.313 -23.466 28.773001
H 5.579 -21.5 30.121
