54 angstroem
free
N 14.084 -24.115 7.17
N 17.129999 -21.474001 7.731
C 13.97 -23.052 6.824
C 16.169001 -21.153999 7.229
C 12.655 -21.246 5.776
C 13.833 -21.688999 6.374
C 14.901 -20.745001 6.63
C 14.674 -19.424 6.343
C 13.471 -18.988001 5.797
C 12.522 -19.929001 5.402
H 11.837 -21.929001 5.599
H 15.459 -18.712 6.5520000000000005
N 11.317 -19.566 4.676
C 10.81 -20.025999 3.521
C 11.574 -20.638 2.566
C 10.857 -21.073 1.417
C 9.468 -20.878 1.27
C 8.695 -20.256001 2.255
C 9.471 -19.774999999999995 3.35
H 12.638 -20.764 2.705
H 11.391000000000002 -21.573 0.622
H 8.978 -21.216999 0.369
H 7.621999999999999 -20.159 2.179
C 10.255 -18.858 5.226
C 10.239 -18.129 6.428
C 9.111000000000002 -17.356001 6.7940000000000005
C 7.948 -17.424999 6.0
C 7.937 -18.240999 4.855
C 9.106 -18.906 4.471
H 11.103 -18.164 7.076
H 9.137 -16.721001 7.667
H 7.07 -16.856001 6.268
H 7.034 -18.357 4.273
N 13.522 -17.673 5.335
C 13.600999999999999 -17.263 3.984
C 13.897 -18.07 2.892
C 14.157 -17.506001 1.632
C 14.331 -16.111 1.542
C 14.109 -15.261 2.644
C 13.822 -15.871 3.861
H 13.926 -19.142 3.022
H 14.22 -18.131001 0.754
H 14.644 -15.68 0.603
H 14.157 -14.186 2.56
C 13.435 -16.528999 6.018
C 13.287 -16.372 7.389
C 13.159 -15.081 7.9
C 13.434 -13.952 7.107
C 13.693 -14.081 5.739
C 13.690000000000001 -15.406 5.228
H 13.272 -17.232 8.042
H 12.842 -14.953 8.924
H 13.446 -12.97 7.556
H 13.883 -13.217 5.119000000000001
